{
  "kind": "collectionType",
  "collectionName": "locations",
  "info": {
    "name": "Location"
  },
  "options": {
    "increments": true,
    "timestamps": true
  },
  "attributes": {
    "name": {
      "type": "string"
    },
    "location_terms": {
      "collection": "location-term"
    },
    "long_name": {
      "type": "string",
      "required": true
    },
    "short_name": {
      "type": "string",
      "required": true
    },
    "latitude": {
      "type": "float",
      "required": true
    },
    "longitude": {
      "type": "float",
      "required": true
    },
    "place_id": {
      "type": "string",
      "required": true,
      "unique": false
    },
    "user": {
      "plugin": "users-permissions",
      "model": "user",
      "via": "locations"
    },
    "full_name": {
      "type": "string"
    }
  }
}
